﻿{
  "assistIcon":" <img src='img://gui/maps/icons/library/efficiency/48x48/help.png' width='24' height='24' vspace='-10'>",
  "blockedIcon":" <img src='img://gui/maps/icons/library/efficiency/48x48/armor.png' width='24' height='24' vspace='-9'>",
  "damageIcon":"<img src='img://gui/maps/icons/library/efficiency/48x48/damage.png' width='24' height='24' vspace='-10'>",
  "enabled":true,
  "logPosition_x":180,
  "logPosition_y":0,
  "mainLogScale":1,
  "spottedIcon":" <img src='img://gui/maps/icons/library/efficiency/48x48/detection.png' width='24' height='24' vspace='-10'>",
  "stunIcon":" <img src='img://gui/maps/icons/library/efficiency/48x48/stun.png' width='24' height='24' vspace='-10'>",
  "templateMainDMG":"<textformat leading='-3'>{{damageIcon}}<font color='{{tankDamageAvgColor}}'>{{playerDamage}}</font>{{blockedIcon}}{{blockedDamage}}{{assistIcon}}{{assistDamage}}{{spottedIcon}}{{spottedTanks}}{{stunIcon}}{{stun}}{{mainGun}} </textformat>"
}