﻿{
	"enabled": true,
	"clockFormat": "%d.%m.%Y   %X",
	"clockTemplate": "<font size='14' color='#CCCCCC'>{{time}}</font>",
	"timerTemplate": "<img src='img://gui/maps/icons/library/fortification/order_in_progress.png' width='30' height='30' vspace='-10'><font color='{{timerColor}}'>{{timer}}</font>   <img src='img://../mods/configs/mod_battle_observer/NooBooL/images/NooBooL.png' width='40' height='50' vspace='-14'>"
}