﻿{
	"enabled": true,
	"reverse": false,
	"damageLogPosition": {
		"x": 300,
		"y": 65
	},
	"startTag": "<textformat leading='-4' tabstops='[15, 77, 111, 200]'><font color='#CCCCCC' size='12'>",
	"extendedLog": "<font size='10'>x{{shots}}</font>\t{{shellType}}  {{totalDamage}}\t|<font color='#f2958d' size='14'>{{lastDamage}}</font>\t<font color='{{tankClassColor}}'>{{classIcon}} {{tankName}}</font>\t<img src='img://gui/maps/icons/vehicle/small/{{iconName}}.png' width='70' height='14' vspace='-7'>{{killedIcon}}",
	"extendedLogALTMODE": "<font size='10'>x{{shots}}</font>\t{{shellType}}  <font color='{{WGR}}' size='14'>{{WGR}}</font>\t\t<font color='{{tankClassColor}}'>{{classIcon}} {{userName}}</font>\t<img src='img://gui/maps/icons/vehicle/small/{{iconName}}.png' width='70' height='14' vspace='-7'>{{killedIcon}}",
	"endTag": "</font></textformat>",
	"killedIcon": "<img src='img://../mods/configs/mod_battle_observer/NooBooL/images/skull.png' width='16' height='15' vspace='-8'>",
	"shellColor": {
		"normal": "#FAFAFA",
		"gold": "#FFD700"
	},
	"shellTypes": {
		"ARMOR_PIERCING_CR": "<img src='img://gui/maps/icons/shell/ARMOR_PIERCING_CR.png' width='18' height='18' vspace='-8'><font color='#CCCCCC' size='9'>БП</font>",
		"ARMOR_PIERCING": "<img src='img://gui/maps/icons/shell/ARMOR_PIERCING.png' width='18' height='18' vspace='-8'><font color='#CCCCCC' size='9'>ББ</font>",
		"ARMOR_PIERCING_HE": "<img src='img://gui/maps/icons/shell/ARMOR_PIERCING.png' width='18' height='18' vspace='-8'><font color='#CCCCCC' size='9'>ББ</font>",
		"HIGH_EXPLOSIVE": "<img src='img://gui/maps/icons/shell/HIGH_EXPLOSIVE.png' width='18' height='18' vspace='-8'><font color='#CCCCCC' size='9'>ОФ</font>",
		"HOLLOW_CHARGE": "<img src='img://gui/maps/icons/shell/HOLLOW_CHARGE.png' width='18' height='18' vspace='-8'><font color='#CCCCCC' size='9'>КС</font>",
		"UNDEFINED": " <img src='img://gui/maps/icons/library/alertIcon2.png' width='16' height='16' vspace='-2'>"
	}
}