﻿{
	"enabled": true,
	"reverse": false,
	"inputLogPosition": {
		"x": 240,
		"y": 230
	},
	"startTag": "<textformat leading='-7' tabstops='[16, 60, 100, 200]'><font size='14' color='#CCCCCC'>",
	"extendedLog": "<font size='10'>x{{shots}}</font>\t{{shellType}}\t<font color='{{shellColor}}'>-{{totalDamage}}</font>\t<font color='{{tankClassColor}}'>{{classIcon}}{{tankName}}</font>\t<img src='img://gui/maps/icons/vehicle/small/{{iconName}}.png' width='74' height='16' vspace='-8'>",
	"extendedLogALTMODE": "<font size='10'>x{{shots}}</font>\t{{shellType}}\t<font size='12' color='{{WGR}}'>{{WGR}}</font>\t<font color='{{tankClassColor}}'>{{classIcon}}{{userName}}</font>\t<img src='img://gui/maps/icons/vehicle/small/{{iconName}}.png' width='74' height='16' vspace='-8'>",
	"endTag": "</font></textformat>",
	"killedIcon": "<img src='img://../mods/configs/mod_battle_observer/NooBooL/images/skull.png' width='16' height='15' vspace='-8'>",
	"shellColor": {
		"normal": "#FAFAFA",
		"gold": "#FFD700"
	},
	"shellTypes": {
		"ARMOR_PIERCING_CR": "<img src='img://gui/maps/icons/shell/ARMOR_PIERCING_CR.png' width='22' height='22' vspace='-12'><font color='#CCCCCC' size='10'>БП</font>",
		"ARMOR_PIERCING": "<img src='img://gui/maps/icons/shell/ARMOR_PIERCING.png' width='22' height='22' vspace='-12'><font color='#CCCCCC' size='10'>ББ</font>",
		"ARMOR_PIERCING_HE": "<img src='img://gui/maps/icons/shell/ARMOR_PIERCING.png' width='22' height='22' vspace='-12'><font color='#CCCCCC' size='10'>ББ</font>",
		"HIGH_EXPLOSIVE": "<img src='img://gui/maps/icons/shell/HIGH_EXPLOSIVE.png' width='22' height='22' vspace='-12'><font color='#CCCCCC' size='10'>ОФ</font>",
		"HOLLOW_CHARGE": "<img src='img://gui/maps/icons/shell/HOLLOW_CHARGE.png' width='22' height='22' vspace='-12'><font color='#CCCCCC' size='10'>КС</font>",
		"UNDEFINED": " <img src='img://gui/maps/icons/library/alertIcon2.png' width='16' height='16' vspace='-2'>"
	}
}