﻿{
	"enabled": true,
	"LENS_EFFECTS_ENABLED": false,
	"default_zoom": {
		"enable": false,
		"defZoom": 4.0
	},
	"dynamyc_zoom": {
		"enable": false,
		"zoomToGunMarker": false,
		"maxZoom": 25.0,
		"minZoom": 2.0,
		"zoomXMetrs": 17
	},
	"zoomSteps": [2.0, 4.0, 8.0, 16.0, 25.0]
}